…
Total (Original, and Medicare Advantage and Other Health Plan
Enrollment) and Resident Population by Area of Residence, 2013-2021

``` r
mdcr_enroll_ab_2 <- googlesheets4::read_sheet(
  ss = medicare_enrollment, 
  sheet = "mdcr_enroll_ab_2")

mdcr_enroll_ab_2
```

    #> # A tibble: 468 × 12
    #>     year area_of_residence    population enroll_tot enroll_pct_pop enroll_orig
    #>    <dbl> <chr>                     <dbl>      <dbl>          <dbl>       <dbl>
    #>  1  2013 United States         316234505   51280170           16.2    36989054
    #>  2  2013 Alabama                 4827660     921477           19.1      711448
    #>  3  2013 Alaska                   736760      76224           10.4       75676
    #>  4  2013 Arizona                 6616124    1050128           15.9      658948
    #>  5  2013 Arkansas                2956780     572713           19.4      467399
    #>  6  2013 California             38347383    5300177           13.8     3318396
    #>  7  2013 Colorado                5262556     721035           13.7      468492
    #>  8  2013 Connecticut             3602470     608512           16.9      467291
    #>  9  2013 Delaware                 925114     167686           18.1      155803
    #> 10  2013 District of Columbia     650114      83964           12.9       74946
    #> # ℹ 458 more rows
    #> # ℹ 6 more variables: enroll_orig_pct_tot <dbl>, enroll_ma_oth <dbl>,
    #> #   enroll_ma_oth_pct_tot <dbl>, enroll_metro <dbl>, enroll_micro <dbl>,
    #> #   enroll_non_cbsa <dbl>

``` r
mdcr_enroll_ab_2 |> 
  dplyr::select(year,
                area_of_residence, 
                population,
                total = enroll_tot,
                original = enroll_orig,
                ma_other = enroll_ma_oth,
                metropolitan = enroll_metro,
                micropolitan = enroll_micro,
                non_cbsa = enroll_non_cbsa)
```

    #> # A tibble: 468 × 9
    #>     year area_of_residence    population    total original ma_other metropolitan
    #>    <dbl> <chr>                     <dbl>    <dbl>    <dbl>    <dbl>        <dbl>
    #>  1  2013 United States         316234505 51280170 36989054 14291116     41773374
    #>  2  2013 Alabama                 4827660   921477   711448   210029       666054
    #>  3  2013 Alaska                   736760    76224    75676      549        48894
    #>  4  2013 Arizona                 6616124  1050128   658948   391180       987503
    #>  5  2013 Arkansas                2956780   572713   467399   105315       309384
    #>  6  2013 California             38347383  5300177  3318396  1981781      5115305
    #>  7  2013 Colorado                5262556   721035   468492   252542       605972
    #>  8  2013 Connecticut             3602470   608512   467291   141221       571699
    #>  9  2013 Delaware                 925114   167686   155803    11883       167685
    #> 10  2013 District of Columbia     650114    83964    74946     9018        83963
    #> # ℹ 458 more rows
    #> # ℹ 2 more variables: micropolitan <dbl>, non_cbsa <dbl>
…
Part A and/or Part B Enrollees by Demographics, 2013-2021

``` r
mdcr_enroll_ab_5 <- googlesheets4::read_sheet(
  ss = medicare_enrollment, 
  sheet = "mdcr_enroll_ab_5")

mdcr_enroll_ab_5 |> 
  janitor::clean_names()
```

    #> # A tibble: 198 × 7
    #>     year group        subgroup    a_and_or_b  a_and_b        a        b
    #>    <dbl> <chr>        <chr>            <dbl>    <dbl>    <dbl>    <dbl>
    #>  1  2013 Total        Total         52425659 47620905 52087121 47959444
    #>  2  2013 Age Simple   Under 65       8664271  7783614  8663703  7784182
    #>  3  2013 Age Simple   65 and Over   43761388 39837291 43423417 40175262
    #>  4  2013 Age Detailed Under 18          1941     1678     1938     1681
    #>  5  2013 Age Detailed 18-24           119237   108978   119208   109007
    #>  6  2013 Age Detailed 25-34           643565   582855   643491   582929
    #>  7  2013 Age Detailed 35-44          1176676  1051211  1176567  1051320
    #>  8  2013 Age Detailed 45-54          2502144  2239751  2502012  2239884
    #>  9  2013 Age Detailed 55-64          4220708  3799142  4220488  3799362
    #> 10  2013 Age Detailed 65-74         23947186 20867802 23785639 21029349
    #> # ℹ 188 more rows

Part A and/or Part B Enrollees by Type of Entitlement and Demographics,
2013-2021

``` r
mdcr_enroll_ab_6 <- googlesheets4::read_sheet(
  ss = medicare_enrollment, 
  sheet = "mdcr_enroll_ab_6")

mdcr_enroll_ab_6
```

    #> # A tibble: 198 × 10
    #>     year group  subgroup  total   aged aged_no_esrd aged_esrd    dsb dsb_no_esrd
    #>    <dbl> <chr>  <chr>     <dbl>  <dbl>        <dbl>     <dbl>  <dbl>       <dbl>
    #>  1  2013 Total  Total    5.24e7 4.38e7     43526798    234590 8.66e6     8421102
    #>  2  2013 Age S… Under 65 8.66e6 0                 0         0 8.66e6     8421102
    #>  3  2013 Age S… 65 and … 4.38e7 4.38e7     43526798    234590 0                0
    #>  4  2013 Age D… Under 18 1.94e3 0                 0         0 1.94e3          14
    #>  5  2013 Age D… 18-24    1.19e5 0                 0         0 1.19e5      115495
    #>  6  2013 Age D… 25-34    6.44e5 0                 0         0 6.44e5      627271
    #>  7  2013 Age D… 35-44    1.18e6 0                 0         0 1.18e6     1140185
    #>  8  2013 Age D… 45-54    2.50e6 0                 0         0 2.50e6     2430016
    #>  9  2013 Age D… 55-64    4.22e6 0                 0         0 4.22e6     4108122
    #> 10  2013 Age D… 65-74    2.39e7 2.39e7     23820823    126364 0                0
    #> # ℹ 188 more rows
    #> # ℹ 1 more variable: dsb_esrd <dbl>

Part A and/or Part B Total, Aged, and Disabled Enrollees by Area of
Residence, 2013-2021

``` r
mdcr_enroll_ab_7 <- googlesheets4::read_sheet(
  ss = medicare_enrollment, 
  sheet = "mdcr_enroll_ab_7")

mdcr_enroll_ab_7 |> 
  janitor::clean_names()
```

    #> # A tibble: 540 × 15
    #>     year group   area_of_residence a_and_or_b_tot a_and_or_b_aged a_and_or_b_dsb
    #>    <dbl> <chr>   <chr>                      <dbl>           <dbl>          <dbl>
    #>  1  2013 All     All Areas               52425659        43761388        8664271
    #>  2  2013 Nation… United States           51280170        42814275        8465894
    #>  3  2013 State   Alabama                   921477          698720         222758
    #>  4  2013 State   Alaska                     76224           63712          12512
    #>  5  2013 State   Arizona                  1050128          898705         151422
    #>  6  2013 State   Arkansas                  572713          438855         133859
    #>  7  2013 State   California               5300177         4582391         717786
    #>  8  2013 State   Colorado                  721035          620821         100214
    #>  9  2013 State   Connecticut               608512          526964          81548
    #> 10  2013 State   Delaware                  167686          141355          26332
    #> # ℹ 530 more rows
    #> # ℹ 9 more variables: a_and_b_tot <dbl>, a_and_b_aged <dbl>, a_and_b_dsb <dbl>,
    #> #   a_tot <dbl>, a_aged <dbl>, a_dsb <dbl>, b_tot <dbl>, b_aged <dbl>,
    #> #   b_dsb <dbl>

Part A and/or Part B Enrollees, by Type of Entitlement and Area of
Residence, 2013-2021

``` r
mdcr_enroll_ab_8 <- googlesheets4::read_sheet(
  ss = medicare_enrollment, 
  sheet = "mdcr_enroll_ab_8")

mdcr_enroll_ab_8
```

    #> # A tibble: 540 × 10
    #>     year group    area_of_residence   total   aged aged_no_esrd aged_esrd    dsb
    #>    <dbl> <chr>    <chr>               <dbl>  <dbl>        <dbl>     <dbl>  <dbl>
    #>  1  2013 All      All Areas          5.24e7 4.38e7     43526798    234590 8.66e6
    #>  2  2013 National United States      5.13e7 4.28e7     42583092    231183 8.47e6
    #>  3  2013 State    Alabama            9.21e5 6.99e5       694586      4134 2.23e5
    #>  4  2013 State    Alaska             7.62e4 6.37e4        63460       252 1.25e4
    #>  5  2013 State    Arizona            1.05e6 8.99e5       894246      4459 1.51e5
    #>  6  2013 State    Arkansas           5.73e5 4.39e5       436922      1933 1.34e5
    #>  7  2013 State    California         5.30e6 4.58e6      4552799     29592 7.18e5
    #>  8  2013 State    Colorado           7.21e5 6.21e5       618628      2193 1.00e5
    #>  9  2013 State    Connecticut        6.09e5 5.27e5       524647      2318 8.15e4
    #> 10  2013 State    Delaware           1.68e5 1.41e5       140510       845 2.63e4
    #> # ℹ 530 more rows
    #> # ℹ 2 more variables: dsb_no_esrd <dbl>, dsb_esrd <dbl>
…
Total Beneficiaries by Demographics, 2013-2021

``` r
mdcr_enroll_ab_34 <- googlesheets4::read_sheet(
  ss = medicare_deaths, 
  sheet = "mdcr_enroll_ab_34")

mdcr_enroll_ab_34
```

    #> # A tibble: 198 × 6
    #>     year group        subgroup      total original ma_other
    #>    <dbl> <chr>        <chr>         <dbl>    <dbl>    <dbl>
    #>  1  2013 Total        Total       2126488  1594827   531661
    #>  2  2013 Age Simple   Under 65     197013   159083    37930
    #>  3  2013 Age Simple   65 and Over 1929475  1435744   493731
    #>  4  2013 Age Detailed Under 18         24       24        0
    #>  5  2013 Age Detailed 18-24           690      641       49
    #>  6  2013 Age Detailed 25-34          5052     4541      511
    #>  7  2013 Age Detailed 35-44         14276    12218     2058
    #>  8  2013 Age Detailed 45-54         50225    41606     8619
    #>  9  2013 Age Detailed 55-64        126746   100053    26693
    #> 10  2013 Age Detailed 65-74        454912   334073   120839
    #> # ℹ 188 more rows
…
Original Medicare Beneficiaries by Area of Residence, 2013-2021

``` r
mdcr_enroll_ab_37 <- googlesheets4::read_sheet(
  ss = medicare_deaths, 
  sheet = "mdcr_enroll_ab_37")

mdcr_enroll_ab_37
```

    #> # A tibble: 513 × 6
    #>     year group    area_of_residence   total    aged disabled
    #>    <dbl> <chr>    <chr>               <dbl>   <dbl>    <dbl>
    #>  1  2013 All      All Areas         1594827 1435744   159083
    #>  2  2013 National United States     1572213 1414382   157831
    #>  3  2013 State    Alabama             31955   27991     3964
    #>  4  2013 State    Alaska               2569       0        0
    #>  5  2013 State    Arizona             23823   21787     2036
    #>  6  2013 State    Arkansas            21078   18577     2501
    #>  7  2013 State    California         125596  113681    11915
    #>  8  2013 State    Colorado            16965   15307     1658
    #>  9  2013 State    Connecticut         20369   18919     1450
    #> 10  2013 State    Delaware             5827    5212      615
    #> # ℹ 503 more rows
…
Medicare Advantage and Other Health Plan Beneficiaries by Area of
Residence, 2013-2021

``` r
mdcr_enroll_ab_39 <- googlesheets4::read_sheet(
  ss = medicare_deaths, 
  sheet = "mdcr_enroll_ab_39")

mdcr_enroll_ab_39
```

    #> # A tibble: 513 × 6
    #>     year group    area_of_residence  total   aged disabled
    #>    <dbl> <chr>    <chr>              <dbl>  <dbl>    <dbl>
    #>  1  2013 All      All Areas         531661 493731    37930
    #>  2  2013 National United States     515518 478970    36548
    #>  3  2013 State    Alabama             7800   6495     1305
    #>  4  2013 State    Alaska                30      0        0
    #>  5  2013 State    Arizona            15537  14064     1473
    #>  6  2013 State    Arkansas            3561   2947      614
    #>  7  2013 State    California         71950  68794     3156
    #>  8  2013 State    Colorado            9133   8597      536
    #>  9  2013 State    Connecticut         4491   4273      218
    #> 10  2013 State    Delaware             485    446       39
    #> # ℹ 503 more rows
