CMS Program Statistics
…
mdcr_enroll_ab_4 |> 
  dplyr::select(year, 
                dplyr::contains("pct")) |> 
  tidyr::pivot_longer(!year, 
                      names_to = "group", 
                      values_to = "percentage")

# A tibble: 140 × 3
    year group     percentage
   <int> <chr>          <dbl>
 1  2008 pct_lt_18  0.0000485
 2  2008 pct_18_24  0.00224  
 3  2008 pct_25_34  0.0119   
 4  2008 pct_35_44  0.0253   
 5  2008 pct_45_54  0.0514   
 6  2008 pct_55_64  0.0731   
 7  2008 pct_65_74  0.426    
 8  2008 pct_75_84  0.287    
 9  2008 pct_85_94  0.112    
10  2008 pct_95_gt  0.0118   
# ℹ 130 more rows

Part A and/or Part B Enrollees by Demographics, 2013-2021

mdcr_enroll_ab_5

# A tibble: 198 × 7
    year group        subgroup    a_and_or_b  a_and_b        a        b
   <int> <chr>        <chr>            <dbl>    <dbl>    <dbl>    <dbl>
 1  2013 Total        Total         52425659 47620905 52087121 47959444
 2  2013 Age Simple   Under 65       8664271  7783614  8663703  7784182
 3  2013 Age Simple   65 and Over   43761388 39837291 43423417 40175262
 4  2013 Age Detailed Under 18          1941     1678     1938     1681
 5  2013 Age Detailed 18-24           119237   108978   119208   109007
 6  2013 Age Detailed 25-34           643565   582855   643491   582929
 7  2013 Age Detailed 35-44          1176676  1051211  1176567  1051320
 8  2013 Age Detailed 45-54          2502144  2239751  2502012  2239884
 9  2013 Age Detailed 55-64          4220708  3799142  4220488  3799362
10  2013 Age Detailed 65-74         23947186 20867802 23785639 21029349
# ℹ 188 more rows
…
One of the categories used for classifying Medicare enrollees and Medicaid eligibles. Under Medicare, persons age 65 or over are included in this category if they are: entitled to monthly SSA benefits or payments from the RRB, uninsured for SSA or RRB benefits but transitionally insured for Medicare, or not included in the previously mentioned groups, but based on meeting certain criteria, elect to purchase HI and/or SMI coverage by paying the appropriate monthly premium. Persons age 65 or over identified as having ESRD are included. Under Medicaid, persons age 65 or over are included if, in addition to initially being age 65 or over met certain means (income and resources) criteria or incur medical expenses for health care that when deducted from income qualifies the individual for Medicaid.

Disabled

One of the categories used for classifying Medicare enrollees and Medicaid eligibles. Disabled persons under age 65 receiving Social Security or RRB disability insurance benefits for 24 months are eligible for Medicare coverage. Persons under age 65 who are diagnosed with ESRD are eligible to receive Medicare coverage without the Social Security disability insurance 24 month requirement. In this online report, ESRD beneficiaries are included with the disabled unless otherwise noted. Under Medicaid, the disabled category refers to low-income individuals of any age who are eligible as persons meeting SSA’s programmatic definition of disability. This includes individuals receiving SSI as well as those whose incomes are too high for SSI, but qualify under separate Medicaid income standards.

End Stage Renal Disease (ESRD)

Permanent kidney failure. To survive, the patient must either receive a kidney transplant or periodic kidney dialysis. Individuals with ESRD are eligible for Medicare benefits under a special entitlement.

Individuals who have chronic kidney disease requiring renal dialysis or a kidney transplant are considered to have ESRD. To qualify for Medicare coverage, such individuals must be fully or currently insured under Social Security or the Railroad Retirement System or be the dependent of an insured person. Eligibility for Medicare coverage begins the first day of the fourth month of dialysis treatments; coverage may begin sooner if the patient participates in a self-care dialysis training program provided by a Medicare-approved training facility. Also, coverage may begin on admittance to a Medicare-approved hospital to receive a kidney transplant or to receive dialysis before the transplant if the transplant takes place in that same month or within the following 2 months.

mdcr_enroll_ab_6

# A tibble: 198 × 10
    year group  subgroup  total   aged aged_no_esrd aged_esrd    dsb dsb_no_esrd
   <int> <chr>  <chr>     <dbl>  <dbl>        <dbl>     <dbl>  <dbl>       <dbl>
 1  2013 Total  Total    5.24e7 4.38e7     43526798    234590 8.66e6     8421102
 2  2013 Age S… Under 65 8.66e6 0                 0         0 8.66e6     8421102
 3  2013 Age S… 65 and … 4.38e7 4.38e7     43526798    234590 0                0
 4  2013 Age D… Under 18 1.94e3 0                 0         0 1.94e3          14
 5  2013 Age D… 18-24    1.19e5 0                 0         0 1.19e5      115495
 6  2013 Age D… 25-34    6.44e5 0                 0         0 6.44e5      627271
 7  2013 Age D… 35-44    1.18e6 0                 0         0 1.18e6     1140185
 8  2013 Age D… 45-54    2.50e6 0                 0         0 2.50e6     2430016
 9  2013 Age D… 55-64    4.22e6 0                 0         0 4.22e6     4108122
10  2013 Age D… 65-74    2.39e7 2.39e7     23820823    126364 0                0
# ℹ 188 more rows
# ℹ 1 more variable: dsb_esrd <dbl>

Part A and/or Part B Total, Aged, and Disabled Enrollees by Area of Residence, 2013-2021

mdcr_enroll_ab_7

# A tibble: 540 × 15
    year group   area_of_residence a_and_or_b_tot a_and_or_b_aged a_and_or_b_dsb
   <int> <chr>   <chr>                      <dbl>           <dbl>          <dbl>
 1  2013 All     All Areas               52425659        43761388        8664271
 2  2013 Nation… United States           51280170        42814275        8465894
 3  2013 State   Alabama                   921477          698720         222758
 4  2013 State   Alaska                     76224           63712          12512
 5  2013 State   Arizona                  1050128          898705         151422
 6  2013 State   Arkansas                  572713          438855         133859
 7  2013 State   California               5300177         4582391         717786
 8  2013 State   Colorado                  721035          620821         100214
 9  2013 State   Connecticut               608512          526964          81548
10  2013 State   Delaware                  167686          141355          26332
# ℹ 530 more rows
# ℹ 9 more variables: a_and_b_tot <dbl>, a_and_b_aged <dbl>, a_and_b_dsb <dbl>,
#   a_tot <dbl>, a_aged <dbl>, a_dsb <dbl>, b_tot <dbl>, b_aged <dbl>,
#   b_dsb <dbl>

Part A and/or Part B Enrollees, by Type of Entitlement and Area of Residence, 2013-2021

mdcr_enroll_ab_8

# A tibble: 540 × 10
    year group    area_of_residence   total   aged aged_no_esrd aged_esrd    dsb
   <int> <chr>    <chr>               <dbl>  <dbl>        <dbl>     <dbl>  <dbl>
 1  2013 All      All Areas          5.24e7 4.38e7     43526798    234590 8.66e6
 2  2013 National United States      5.13e7 4.28e7     42583092    231183 8.47e6
 3  2013 State    Alabama            9.21e5 6.99e5       694586      4134 2.23e5
 4  2013 State    Alaska             7.62e4 6.37e4        63460       252 1.25e4
 5  2013 State    Arizona            1.05e6 8.99e5       894246      4459 1.51e5
 6  2013 State    Arkansas           5.73e5 4.39e5       436922      1933 1.34e5
 7  2013 State    California         5.30e6 4.58e6      4552799     29592 7.18e5
 8  2013 State    Colorado           7.21e5 6.21e5       618628      2193 1.00e5
 9  2013 State    Connecticut        6.09e5 5.27e5       524647      2318 8.15e4
10  2013 State    Delaware           1.68e5 1.41e5       140510       845 2.63e4
# ℹ 530 more rows
# ℹ 2 more variables: dsb_no_esrd <dbl>, dsb_esrd <dbl>

mdcr_enroll_avgs

# A tibble: 1,652 × 3
   area_of_residence     year enrollment_average
   <chr>                <int>              <dbl>
 1 U.S. AND OTHER AREAS  1985           31082801
 2 U.S. AND OTHER AREAS  1986           31749708
 3 U.S. AND OTHER AREAS  1987           32411204
 4 U.S. AND OTHER AREAS  1988           32980033
 5 U.S. AND OTHER AREAS  1989           33579449
 6 U.S. AND OTHER AREAS  1990           34203383
 7 U.S. AND OTHER AREAS  1991           34870240
 8 U.S. AND OTHER AREAS  1992           35579149
 9 U.S. AND OTHER AREAS  1993           36305903
10 U.S. AND OTHER AREAS  1994           36935366
# ℹ 1,642 more rows
…
Total Beneficiaries by Demographics, 2013-2021

mdcr_enroll_ab_34

# A tibble: 198 × 6
    year group        subgroup      total original ma_other
   <int> <chr>        <chr>         <dbl>    <dbl>    <dbl>
 1  2013 Total        Total       2126488  1594827   531661
 2  2013 Age Simple   Under 65     197013   159083    37930
 3  2013 Age Simple   65 and Over 1929475  1435744   493731
 4  2013 Age Detailed Under 18         24       24        0
 5  2013 Age Detailed 18-24           690      641       49
 6  2013 Age Detailed 25-34          5052     4541      511
 7  2013 Age Detailed 35-44         14276    12218     2058
 8  2013 Age Detailed 45-54         50225    41606     8619
 9  2013 Age Detailed 55-64        126746   100053    26693
10  2013 Age Detailed 65-74        454912   334073   120839
# ℹ 188 more rows

Total Beneficiaries by Area of Residence, 2013-2021

mdcr_enroll_ab_35

# A tibble: 540 × 6
    year group    area_of_residence   total    aged disabled
   <int> <chr>    <chr>               <dbl>   <dbl>    <dbl>
 1  2013 All      All Areas         2126488 1929475   197013
 2  2013 National United States     2087731 1893352   194379
 3  2013 State    Alabama             39755   34486     5269
 4  2013 State    Alaska               2599    2267      332
 5  2013 State    Arizona             39360   35851     3509
 6  2013 State    Arkansas            24639   21524     3115
 7  2013 State    California         197546  182475    15071
 8  2013 State    Colorado            26098   23904     2194
 9  2013 State    Connecticut         24860   23192     1668
10  2013 State    Delaware             6312    5658      654
# ℹ 530 more rows
…
Original Medicare Beneficiaries by Area of Residence, 2013-2021

mdcr_enroll_ab_37

# A tibble: 513 × 6
    year group    area_of_residence   total    aged disabled
   <int> <chr>    <chr>               <dbl>   <dbl>    <dbl>
 1  2013 All      All Areas         1594827 1435744   159083
 2  2013 National United States     1572213 1414382   157831
 3  2013 State    Alabama             31955   27991     3964
 4  2013 State    Alaska               2569       0        0
 5  2013 State    Arizona             23823   21787     2036
 6  2013 State    Arkansas            21078   18577     2501
 7  2013 State    California         125596  113681    11915
 8  2013 State    Colorado            16965   15307     1658
 9  2013 State    Connecticut         20369   18919     1450
10  2013 State    Delaware             5827    5212      615
# ℹ 503 more rows
…
Medicare Advantage and Other Health Plan Beneficiaries by Area of Residence, 2013-2021

mdcr_enroll_ab_39

# A tibble: 513 × 6
    year group    area_of_residence  total   aged disabled
   <int> <chr>    <chr>              <dbl>  <dbl>    <dbl>
 1  2013 All      All Areas         531661 493731    37930
 2  2013 National United States     515518 478970    36548
 3  2013 State    Alabama             7800   6495     1305
 4  2013 State    Alaska                30      0        0
 5  2013 State    Arizona            15537  14064     1473
 6  2013 State    Arkansas            3561   2947      614
 7  2013 State    California         71950  68794     3156
 8  2013 State    Colorado            9133   8597      536
 9  2013 State    Connecticut         4491   4273      218
10  2013 State    Delaware             485    446       39
# ℹ 503 more rows
