Medicare Deaths
…
Code

deaths_by_month

# A tibble: 42 × 53
    year group   total total_chg total_pct_chg january january_pct january_chg
   <int> <chr>   <dbl>     <dbl>         <dbl>   <dbl>       <dbl>       <dbl>
 1  2008 Total 1998215        NA      NA        183291      0.0917          NA
 2  2009 Total 1964086    -34129      -0.0171   181710      0.0925       -1581
 3  2010 Total 2003962     39876       0.0203   182764      0.0912        1054
 4  2011 Total 2046334     42372       0.0211   192388      0.0940        9624
 5  2012 Total 2077591     31257       0.0153   185736      0.0894       -6652
 6  2013 Total 2126488     48897       0.0235   218498      0.103        32762
 7  2014 Total 2144287     17799       0.00837  199003      0.0928      -19495
 8  2015 Total 2220438     76151       0.0355   222132      0.100        23129
 9  2016 Total 2226692      6254       0.00282  203187      0.0913      -18945
10  2017 Total 2290129     63437       0.0285   217850      0.0951       14663
# ℹ 32 more rows
# ℹ 45 more variables: january_pct_chg <dbl>, february <dbl>,
#   february_pct <dbl>, february_chg <dbl>, february_pct_chg <dbl>,
#   march <dbl>, march_pct <dbl>, march_chg <dbl>, march_pct_chg <dbl>,
#   april <dbl>, april_pct <dbl>, april_chg <dbl>, april_pct_chg <dbl>,
#   may <dbl>, may_pct <dbl>, may_chg <dbl>, may_pct_chg <dbl>, june <dbl>,
#   june_pct <dbl>, june_chg <dbl>, june_pct_chg <dbl>, july <dbl>, …
…
                group, 
                dplyr::contains("pct"),
                -dplyr::contains("chg")) |> 
  tidyr::pivot_longer(cols = dplyr::contains("pct"),
                      names_to = "month",
                      values_to = "deaths_pct") |> 
  dplyr::mutate(month = stringr::str_remove(month, "_pct"),
                month = stringr::str_to_title(month),
                month = factor(month, levels = month.name),
                date = clock::as_date(clock::year_month_day(year, as.integer(month), 1)),
                mon = lubridate::month(date, label = TRUE, abbr = TRUE)) |> 
  dplyr::select(date, month, mon, year, group, deaths_pct)
deaths_by_month_pct

# A tibble: 504 × 6
   date       month     mon    year group deaths_pct
   <date>     <fct>     <ord> <int> <chr>      <dbl>
 1 2008-01-01 January   Jan    2008 Total     0.0917
 2 2008-02-01 February  Feb    2008 Total     0.0916
 3 2008-03-01 March     Mar    2008 Total     0.0956
 4 2008-04-01 April     Apr    2008 Total     0.0840
 5 2008-05-01 May       May    2008 Total     0.0814
 6 2008-06-01 June      Jun    2008 Total     0.0760
 7 2008-07-01 July      Jul    2008 Total     0.0763
 8 2008-08-01 August    Aug    2008 Total     0.0763
 9 2008-09-01 September Sep    2008 Total     0.0753
10 2008-10-01 October   Oct    2008 Total     0.0810
# ℹ 494 more rows
…
deaths_by_month_n <- deaths_by_month |> 
  dplyr::select(year, 
                group, 
                dplyr::any_of(tolower(month.name))) |> 
  tidyr::pivot_longer(cols = dplyr::any_of(tolower(month.name)),
                      names_to = "month",
                      values_to = "deaths") |> 
  dplyr::mutate(month = stringr::str_to_title(month),
                month = factor(month, levels = month.name),
                date = clock::as_date(clock::year_month_day(year, as.integer(month), 1)),
                mon = lubridate::month(date, label = TRUE, abbr = TRUE)) |> 
  dplyr::select(date, month, mon, year, group, deaths)
deaths_by_month_n

# A tibble: 504 × 6
   date       month     mon    year group deaths
   <date>     <fct>     <ord> <int> <chr>  <dbl>
 1 2008-01-01 January   Jan    2008 Total 183291
 2 2008-02-01 February  Feb    2008 Total 182939
 3 2008-03-01 March     Mar    2008 Total 191125
 4 2008-04-01 April     Apr    2008 Total 167865
 5 2008-05-01 May       May    2008 Total 162702
 6 2008-06-01 June      Jun    2008 Total 151849
 7 2008-07-01 July      Jul    2008 Total 152562
 8 2008-08-01 August    Aug    2008 Total 152562
 9 2008-09-01 September Sep    2008 Total 150384
10 2008-10-01 October   Oct    2008 Total 161946
# ℹ 494 more rows
…
Deaths by Residence

Total Beneficiary Deaths by Area of Residence, 2013-2021

Code

mdcr_enroll_ab_35

# A tibble: 540 × 6
    year group    area_of_residence   total    aged disabled
   <int> <chr>    <chr>               <dbl>   <dbl>    <dbl>
 1  2013 All      All Areas         2126488 1929475   197013
 2  2013 National United States     2087731 1893352   194379
 3  2013 State    Alabama             39755   34486     5269
 4  2013 State    Alaska               2599    2267      332
 5  2013 State    Arizona             39360   35851     3509
 6  2013 State    Arkansas            24639   21524     3115
 7  2013 State    California         197546  182475    15071
 8  2013 State    Colorado            26098   23904     2194
 9  2013 State    Connecticut         24860   23192     1668
10  2013 State    Delaware             6312    5658      654
# ℹ 530 more rows

Original Medicare Beneficiary Deaths by Area of Residence, 2013-2021

Code

mdcr_enroll_ab_37

# A tibble: 513 × 6
    year group    area_of_residence   total    aged disabled
   <int> <chr>    <chr>               <dbl>   <dbl>    <dbl>
 1  2013 All      All Areas         1594827 1435744   159083
 2  2013 National United States     1572213 1414382   157831
 3  2013 State    Alabama             31955   27991     3964
 4  2013 State    Alaska               2569       0        0
 5  2013 State    Arizona             23823   21787     2036
 6  2013 State    Arkansas            21078   18577     2501
 7  2013 State    California         125596  113681    11915
 8  2013 State    Colorado            16965   15307     1658
 9  2013 State    Connecticut         20369   18919     1450
10  2013 State    Delaware             5827    5212      615
# ℹ 503 more rows

Medicare Advantage and Other Health Plan Beneficiary Deaths by Area of Residence, 2013-2021

Code

mdcr_enroll_ab_39

# A tibble: 513 × 6
    year group    area_of_residence  total   aged disabled
   <int> <chr>    <chr>              <dbl>  <dbl>    <dbl>
 1  2013 All      All Areas         531661 493731    37930
 2  2013 National United States     515518 478970    36548
 3  2013 State    Alabama             7800   6495     1305
 4  2013 State    Alaska                30      0        0
 5  2013 State    Arizona            15537  14064     1473
 6  2013 State    Arkansas            3561   2947      614
 7  2013 State    California         71950  68794     3156
 8  2013 State    Colorado            9133   8597      536
 9  2013 State    Connecticut         4491   4273      218
10  2013 State    Delaware             485    446       39
# ℹ 503 more rows

Death Demographics

Total Beneficiary Deaths Demographics, 2013-2021

Code

mdcr_enroll_ab_34

# A tibble: 198 × 6
    year group        subgroup      total original ma_other
   <int> <chr>        <chr>         <dbl>    <dbl>    <dbl>
 1  2013 Total        Total       2126488  1594827   531661
 2  2013 Age Simple   Under 65     197013   159083    37930
 3  2013 Age Simple   65 and Over 1929475  1435744   493731
 4  2013 Age Detailed Under 18         24       24        0
 5  2013 Age Detailed 18-24           690      641       49
 6  2013 Age Detailed 25-34          5052     4541      511
 7  2013 Age Detailed 35-44         14276    12218     2058
 8  2013 Age Detailed 45-54         50225    41606     8619
 9  2013 Age Detailed 55-64        126746   100053    26693
10  2013 Age Detailed 65-74        454912   334073   120839
# ℹ 188 more rows
