Medicare Enrollment
…
A Core Based Statistical Area associated with at least one urbanized area that has a population of at least 50,000. The Metropolitan Statistical Area comprises the central county or counties containing the core, plus adjacent outlying counties having a high degree of social and economic integration with the central county or counties as measured through commuting.

Micropolitan Statistical Area

A Core Statistical Area associated with at least one urban cluster that has a population of at least 10,000, but less than 50,000. The Micropolitan Statistical Area comprises the central county or counties containing the core, plus adjacent outlying counties having a high degree of social and economic integration with the central county or counties as measured through commuting.

Non-Core-Based Statistical Area

All remaining counties, often labeled “noncore” counties because they are not part of “core-based” metropolitan or micropolitan areas.

Code

mdcr_enroll_ab_2

# A tibble: 468 × 15
    year area_of_residence    population   total total_pct original original_pct
   <int> <chr>                     <dbl>   <dbl>     <dbl>    <dbl>        <dbl>
 1  2013 United States         316234505  5.13e7     0.162 36989054        0.721
 2  2013 Alabama                 4827660  9.21e5     0.191   711448        0.772
 3  2013 Alaska                   736760  7.62e4     0.103    75676        0.993
 4  2013 Arizona                 6616124  1.05e6     0.159   658948        0.627
 5  2013 Arkansas                2956780  5.73e5     0.194   467399        0.816
 6  2013 California             38347383  5.30e6     0.138  3318396        0.626
 7  2013 Colorado                5262556  7.21e5     0.137   468492        0.650
 8  2013 Connecticut             3602470  6.09e5     0.169   467291        0.768
 9  2013 Delaware                 925114  1.68e5     0.181   155803        0.929
10  2013 District of Columbia     650114  8.40e4     0.129    74946        0.893
# ℹ 458 more rows
# ℹ 8 more variables: ma_other <dbl>, ma_other_pct <dbl>, metro <dbl>,
#   metro_pct <dbl>, micro <dbl>, micro_pct <dbl>, non_cbsa <dbl>,
#   non_cbsa_pct <dbl>
…
Enrollment Averages

Code

mdcr_enroll_avgs

# A tibble: 1,652 × 3
   area_of_residence     year enrollment_average
   <chr>                <int>              <dbl>
 1 U.S. AND OTHER AREAS  1985           31082801
 2 U.S. AND OTHER AREAS  1986           31749708
 3 U.S. AND OTHER AREAS  1987           32411204
 4 U.S. AND OTHER AREAS  1988           32980033
 5 U.S. AND OTHER AREAS  1989           33579449
 6 U.S. AND OTHER AREAS  1990           34203383
 7 U.S. AND OTHER AREAS  1991           34870240
 8 U.S. AND OTHER AREAS  1992           35579149
 9 U.S. AND OTHER AREAS  1993           36305903
10 U.S. AND OTHER AREAS  1994           36935366
# ℹ 1,642 more rows
