Time Series Forecasting
…
deaths_month

# A tsibble: 168 x 3 [1M]
   type     deaths    month
   <chr>     <dbl>    <mth>
 1 Medicare 183291 2008 Jan
 2 Medicare 182939 2008 Feb
 3 Medicare 191125 2008 Mar
 4 Medicare 167865 2008 Apr
 5 Medicare 162702 2008 May
 6 Medicare 151849 2008 Jun
 7 Medicare 152562 2008 Jul
 8 Medicare 152562 2008 Aug
 9 Medicare 150384 2008 Sep
10 Medicare 161946 2008 Oct
# ℹ 158 more rows
…
deaths_qtr

# A tsibble: 56 x 3 [1Q]
   quarter type     deaths
     <qtr> <chr>     <dbl>
 1 2008 Q1 Medicare 557355
 2 2008 Q2 Medicare 482416
 3 2008 Q3 Medicare 455508
 4 2008 Q4 Medicare 502936
 5 2009 Q1 Medicare 520775
 6 2009 Q2 Medicare 477660
 7 2009 Q3 Medicare 459395
 8 2009 Q4 Medicare 506256
 9 2010 Q1 Medicare 525836
10 2010 Q2 Medicare 483274
# ℹ 46 more rows
…
